sim/wave.vcd
$date
	Mon Jan 09 22:27:30 2023
$end
$version
	Icarus Verilog
$end
$timescale
	1ns
$end
$scope module testbench $end
$var wire 32 ! x26 [31:0] $end
$var wire 32 " x27 [31:0] $end
$var wire 32 # x3 [31:0] $end
$var reg 1 $ clk $end
$var reg 1 % rst_n $end
$var integer 32 & r [31:0] $end
$scope module u_tinyriscv_soc_top $end
$var wire 1 $ clk $end
$var wire 1 % rst_n $end
$var wire 1 ' tv_mem_we_o $end
$var wire 32 ( tv_mem_wdata_o [31:0] $end
$var wire 32 ) tv_mem_waddr_o [31:0] $end
$var wire 32 * tv_mem_raddr_o [31:0] $end
$var wire 32 + tv_inst_addr_o [31:0] $end
$var wire 32 , rom_data_o [31:0] $end
$var wire 32 - ram_mem_rdata_o [31:0] $end
$scope module u_ram $end
$var wire 1 $ clk $end
$var wire 1 % rst_n $end
$var wire 1 ' mem_we_i $end
$var wire 32 . mem_wdata_i [31:0] $end
$var wire 32 / mem_waddr_i [31:0] $end
$var wire 32 0 mem_raddr_i [31:0] $end
$var reg 32 1 mem_rdata_o [31:0] $end
$upscope $end
$scope module u_rom $end
$var wire 1 $ clk $end
$var wire 1 % rst_n $end
$var wire 32 2 addr_i [31:0] $end
$var reg 32 3 data_o [31:0] $end
$upscope $end
$scope module u_tiny_riscv $end
$var wire 1 $ clk $end
$var wire 32 4 inst_addr_o [31:0] $end
$var wire 32 5 inst_i [31:0] $end
$var wire 32 6 mem_raddr_o [31:0] $end
$var wire 32 7 mem_rdata_i [31:0] $end
$var wire 32 8 mem_waddr_o [31:0] $end
$var wire 32 9 mem_wdata_o [31:0] $end
$var wire 1 ' mem_we_o $end
$var wire 1 % rst_n $end
$var wire 32 : regs_reg_data2_o [31:0] $end
$var wire 32 ; regs_reg_data1_o [31:0] $end
$var wire 32 < pc_reg_pc_o [31:0] $end
$var wire 32 = if_id_inst_o [31:0] $end
$var wire 32 > if_id_inst_addr_o [31:0] $end
$var wire 1 ? id_reg_we_o $end
$var wire 5 @ id_reg_waddr_o [4:0] $end
$var wire 5 A id_reg_raddr2_o [4:0] $end
$var wire 5 B id_reg_raddr1_o [4:0] $end
$var wire 32 C id_op2_o [31:0] $end
$var wire 32 D id_op1_o [31:0] $end
$var wire 32 E id_inst_o [31:0] $end
$var wire 32 F id_inst_addr_o [31:0] $end
$var wire 1 G id_ex_reg_we_o $end
$var wire 5 H id_ex_reg_waddr_o [4:0] $end
$var wire 32 I id_ex_op2_o [31:0] $end
$var wire 32 J id_ex_op1_o [31:0] $end
$var wire 32 K id_ex_inst_o [31:0] $end
$var wire 32 L id_ex_inst_addr_o [31:0] $end
$var wire 1 M ex_reg_we_o $end
$var wire 32 N ex_reg_wdata_o [31:0] $end
$var wire 5 O ex_reg_waddr_o [4:0] $end
$var wire 1 P ex_mem_we_o $end
$var wire 32 Q ex_mem_wdata_o [31:0] $end
$var wire 32 R ex_mem_waddr_o [31:0] $end
$var wire 32 S ex_mem_raddr_o [31:0] $end
$var wire 1 T ex_jump_flag_o $end
$var wire 32 U ex_jump_addr_o [31:0] $end
$var wire 3 V ctrl_pause_flag_o [2:0] $end
$var wire 1 W ctrl_jump_flag_o $end
$var wire 32 X ctrl_jump_addr_o [31:0] $end
$scope module u_ctrl $end
$var wire 1 % rst_n $end
$var wire 1 T jump_flag_i $end
$var wire 32 Y jump_addr_i [31:0] $end
$var reg 32 Z jump_addr_o [31:0] $end
$var reg 1 W jump_flag_o $end
$var reg 3 [ pause_flag_o [2:0] $end
$upscope $end
$scope module u_ex $end
$var wire 32 \ current_pc [31:0] $end
$var wire 32 ] jump_addr_jalr [31:0] $end
$var wire 32 ^ mem_rdata_i [31:0] $end
$var wire 1 % rst_n $end
$var wire 5 _ rs2 [4:0] $end
$var wire 5 ` rs1 [4:0] $end
$var wire 1 G reg_we_i $end
$var wire 5 a reg_waddr_i [4:0] $end
$var wire 5 b rd [4:0] $end
$var wire 7 c opcode [6:0] $end
$var wire 32 d op2_i_complement [31:0] $end
$var wire 32 e op2_i [31:0] $end
$var wire 32 f op1_i_complement [31:0] $end
$var wire 32 g op1_i [31:0] $end
$var wire 64 h mul_temp_complement [63:0] $end
$var wire 64 i mul_temp [63:0] $end
$var wire 2 j mem_waddr_index [1:0] $end
$var wire 2 k mem_raddr_index [1:0] $end
$var wire 32 l inst_i [31:0] $end
$var wire 32 m inst_addr_i [31:0] $end
$var wire 7 n funct7 [6:0] $end
$var wire 3 o funct3 [2:0] $end
$var wire 32 p Imm_Inst_J [31:0] $end
$var wire 32 q Imm_Inst_I [31:0] $end
$var wire 32 r Imm_Inst_B [31:0] $end
$var reg 32 s jump_addr_o [31:0] $end
$var reg 1 T jump_flag_o $end
$var reg 32 t mem_raddr_o [31:0] $end
$var reg 32 u mem_waddr_o [31:0] $end
$var reg 32 v mem_wdata_o [31:0] $end
$var reg 1 P mem_we_o $end
$var reg 32 w mul_op1 [31:0] $end
$var reg 32 x mul_op2 [31:0] $end
$var reg 5 y reg_waddr_o [4:0] $end
$var reg 32 z reg_wdata_o [31:0] $end
$var reg 1 M reg_we_o $end
$upscope $end
$scope module u_id $end
$var wire 1 $ clk $end
$var wire 1 % rst_n $end
$var wire 5 { rs2 [4:0] $end
$var wire 5 | rs1 [4:0] $end
$var wire 32 } reg_rdata2_i [31:0] $end
$var wire 32 ~ reg_rdata1_i [31:0] $end
$var wire 5 !" rd [4:0] $end
$var wire 7 "" opcode [6:0] $end
$var wire 32 #" inst_i [31:0] $end
$var wire 32 $" inst_addr_i [31:0] $end
$var wire 7 %" funct7 [6:0] $end
$var wire 3 &" funct3 [2:0] $end
$var reg 32 '" inst_addr_o [31:0] $end
$var reg 32 (" inst_o [31:0] $end
$var reg 32 )" op1_o [31:0] $end
$var reg 32 *" op2_o [31:0] $end
$var reg 5 +" reg_raddr1_o [4:0] $end
$var reg 5 ," reg_raddr2_o [4:0] $end
$var reg 5 -" reg_waddr_o [4:0] $end
$var reg 1 ? reg_we_o $end
$upscope $end
$scope module u_id_ex $end
$var wire 1 $ clk $end
$var wire 32 ." inst_addr_i [31:0] $end
$var wire 32 /" inst_i [31:0] $end
$var wire 32 0" op1_i [31:0] $end
$var wire 32 1" op2_i [31:0] $end
$var wire 3 2" pause_flag_i [2:0] $end
$var wire 5 3" reg_waddr_i [4:0] $end
$var wire 1 ? reg_we_i $end
$var wire 1 % rst_n $end
$var wire 3 4" pause_en [2:0] $end
$var reg 32 5" inst_addr_o [31:0] $end
$var reg 32 6" inst_o [31:0] $end
$var reg 32 7" op1_o [31:0] $end
$var reg 32 8" op2_o [31:0] $end
$var reg 5 9" reg_waddr_o [4:0] $end
$var reg 1 G reg_we_o $end
$upscope $end
$scope module u_if_id $end
$var wire 1 $ clk $end
$var wire 32 :" inst_i [31:0] $end
$var wire 3 ;" pause_flag_i [2:0] $end
$var wire 1 % rst_n $end
$var wire 3 <" pause_en [2:0] $end
$var wire 32 =" inst_addr_i [31:0] $end
$var reg 32 >" inst_addr_o [31:0] $end
$var reg 32 ?" inst_o [31:0] $end
$upscope $end
$scope module u_pc_reg $end
$var wire 1 $ clk $end
$var wire 32 @" jump_addr_i [31:0] $end
$var wire 1 W jump_flag_i $end
$var wire 1 % rst_n $end
$var reg 32 A" pc_o [31:0] $end
$upscope $end
$scope module u_regs $end
$var wire 1 $ clk $end
$var wire 5 B" reg_raddr1_i [4:0] $end
$var wire 5 C" reg_raddr2_i [4:0] $end
$var wire 5 D" reg_waddr_i [4:0] $end
$var wire 32 E" reg_wdata_i [31:0] $end
$var wire 1 M reg_we_i $end
$var wire 1 % rst_n $end
$var reg 32 F" reg_data1_o [31:0] $end
$var reg 32 G" reg_data2_o [31:0] $end
$upscope $end
$upscope $end
$upscope $end
$upscope $end
$enddefinitions $end
$comment Show the parameter values. $end
$dumpall
$end
#0
$dumpvars
b0 G"
b0 F"
b0 E"
b0 D"
b0 C"
b0 B"
b0 A"
b0 @"
b0 ?"
b0 >"
b0 ="
b0 <"
b0 ;"
b0 :"
b0 9"
b0 8"
b0 7"
b0 6"
b0 5"
b0 4"
b0 3"
b0 2"
b0 1"
b0 0"
b0 /"
b0 ."
b0 -"
b0 ,"
b0 +"
b0 *"
b0 )"
b0 ("
b0 '"
b0 &"
b0 %"
b0 $"
b0 #"
b0 ""
b0 !"
b0 ~
b0 }
b0 |
b0 {
b0 z
b0 y
bx x
bx w
b0 v
b0 u
bx t
b0 s
b0 r
b0 q
b0 p
b0 o
b0 n
b0 m
b0 l
bx k
b0 j
bx i
bx h
b0 g
b0 f
b0 e
b0 d
b0 c
b0 b
b0 a
b0 `
b0 _
b0 ^
b0 ]
b0 \
b0 [
b0 Z
b0 Y
b0 X
0W
b0 V
b0 U
0T
bx S
b0 R
b0 Q
0P
b0 O
b0 N
0M
b0 L
b0 K
b0 J
b0 I
b0 H
0G
b0 F
b0 E
b0 D
b0 C
b0 B
b0 A
b0 @
0?
b0 >
b0 =
b0 <
b0 ;
b0 :
b0 9
b0 8
b0 7
bx 6
b0 5
b0 4
b0 3
b0 2
b0 1
bx 0
b0 /
b0 .
b0 -
b0 ,
b0 +
bx *
b0 )
b0 (
0'
bx &
0%
1$
bx #
bx "
bx !
$end
#10
0$
#20
1$
#30
0$
#40
1$
#50
0$
#60
1$
#70
0$
#80
1$
#90
0$
#100
1$
#110
0$
#120
1$
#130
0$
#140
1$
#150
0$
#160
1$
#170
0$
#180
1$
#190
0$
#200
1$
#201
b110100010011 ,
b110100010011 3
b110100010011 5
b110100010011 :"
bx -
bx 1
bx 7
bx ^
1%
#210
0$
#220
b110110010011 ,
b110110010011 3
b110110010011 5
b110110010011 :"
b11010 @
b11010 -"
b11010 3"
1?
b10011 ""
b11010 !"
b110100010011 E
b110100010011 ("
b110100010011 /"
b110100010011 =
b110100010011 #"
b110100010011 ?"
b100 +
b100 2
b100 4
b100 <
b100 ="
b100 A"
1$
#230
0$
#240
b10010011 ,
b10010011 3
b10010011 5
b10010011 :"
b11011 !"
1?
b11011 @
b11011 -"
b11011 3"
b100 F
b100 '"
b100 ."
b110110010011 E
b110110010011 ("
b110110010011 /"
b11010 r
b10011 c
b11010 b
1M
b11010 O
b11010 y
b11010 D"
b1000 +
b1000 2
b1000 4
b1000 <
b1000 ="
b1000 A"
b110110010011 =
b110110010011 #"
b110110010011 ?"
b100 >
b100 $"
b100 >"
b110100010011 K
b110100010011 l
b110100010011 6"
b11010 H
b11010 a
b11010 9"
1G
1$
#250
0$
#260
b100010011 ,
b100010011 3
b100010011 5
b100010011 :"
b100000011010 r
b11011 b
b11011 O
b11011 y
b11011 D"
b1 !"
1?
b1 @
b1 -"
b1 3"
b1000 F
b1000 '"
b1000 ."
b10010011 E
b10010011 ("
b10010011 /"
b11011 H
b11011 a
b11011 9"
b100 \
b100 L
b100 m
b100 5"
b110110010011 K
b110110010011 l
b110110010011 6"
b1000 >
b1000 $"
b1000 >"
b10010011 =
b10010011 #"
b10010011 ?"
b1100 +
b1100 2
b1100 4
b1100 <
b1100 ="
b1100 A"
b0 !
1$
#270
0$
#280
b10001000001011111100110011 ,
b10001000001011111100110011 3
b10001000001011111100110011 5
b10001000001011111100110011 :"
b10 !"
1?
b10 @
b10 -"
b10 3"
b1100 F
b1100 '"
b1100 ."
b100010011 E
b100010011 ("
b100010011 /"
b100000000000 r
b1 b
b1 O
b1 y
b1 D"
b10000 +
b10000 2
b10000 4
b10000 <
b10000 ="
b10000 A"
b100010011 =
b100010011 #"
b100010011 ?"
b1100 >
b1100 $"
b1100 >"
b10010011 K
b10010011 l
b10010011 6"
b1000 \
b1000 L
b1000 m
b1000 5"
b1 H
b1 a
b1 9"
b0 "
1$
#290
0$
#300
b111010010011 ,
b111010010011 3
b111010010011 5
b111010010011 :"
b10 A
b10 ,"
b10 C"
b1 B
b1 +"
b1 B"
b10 r
b10 b
b10 O
b10 y
b10 D"
b110011 ""
b11110 !"
b11 &"
b1 |
b10 {
b1 %"
b0 C
b0 *"
b0 1"
1?
b11110 @
b11110 -"
b11110 3"
b10000 F
b10000 '"
b10000 ."
b10001000001011111100110011 E
b10001000001011111100110011 ("
b10001000001011111100110011 /"
b10 H
b10 a
b10 9"
b1100 \
b1100 L
b1100 m
b1100 5"
b100010011 K
b100010011 l
b100010011 6"
b10000 >
b10000 $"
b10000 >"
b10001000001011111100110011 =
b10001000001011111100110011 #"
b10001000001011111100110011 ?"
b10100 +
b10100 2
b10100 4
b10100 <
b10100 ="
b10100 A"
1$
#310
0$
#320
b1000000000000110010011 ,
b1000000000000110010011 3
b1000000000000110010011 5
b1000000000000110010011 :"
b0 h
b100010 ]
b0 i
b0 x
b0 w
b10011 ""
b11101 !"
b0 &"
b0 |
b0 {
b0 %"
1?
b11101 @
b11101 -"
b11101 3"
b0 A
b0 ,"
b0 C"
b0 B
b0 +"
b0 B"
b10100 F
b10100 '"
b10100 ."
b111010010011 E
b111010010011 ("
b111010010011 /"
b100010 q
b1011000000100010 p
b111110 r
b110011 c
b11110 b
b11 o
b1 `
b10 _
b1 n
b11110 O
b11110 y
b11110 D"
b11000 +
b11000 2
b11000 4
b11000 <
b11000 ="
b11000 A"
b111010010011 =
b111010010011 #"
b111010010011 ?"
b10100 >
b10100 $"
b10100 >"
b10001000001011111100110011 K
b10001000001011111100110011 l
b10001000001011111100110011 6"
b10000 \
b10000 L
b10000 m
b10000 5"
b11110 H
b11110 a
b11110 9"
1$
#330
0$
#340
b1001011110111110001101001100011 ,
b1001011110111110001101001100011 3
b1001011110111110001101001100011 5
b1001011110111110001101001100011 :"
b0 ]
b0 q
b0 p
b100000011100 r
b10011 c
b11101 b
b0 o
b0 `
b0 _
b0 n
b11101 O
b11101 y
b11101 D"
b11 !"
b10 {
b10 C
b10 *"
b10 1"
1?
b11 @
b11 -"
b11 3"
b11000 F
b11000 '"
b11000 ."
b1000000000000110010011 E
b1000000000000110010011 ("
b1000000000000110010011 /"
b11101 H
b11101 a
b11101 9"
b10100 \
b10100 L
b10100 m
b10100 5"
b111010010011 K
b111010010011 l
b111010010011 6"
b11000 >
b11000 $"
b11000 >"
b1000000000000110010011 =
b1000000000000110010011 #"
b1000000000000110010011 ?"
b11100 +
b11100 2
b11100 4
b11100 <
b11100 ="
b11100 A"
1$
#350
0$
#360
b100000000000010010011 ,
b100000000000010010011 3
b100000000000010010011 5
b100000000000010010011 :"
b11101 A
b11101 ,"
b11101 C"
b11110 B
b11110 +"
b11110 B"
b10 ]
b1100011 ""
b10100 !"
b1 &"
b11110 |
b11101 {
b100101 %"
b0 C
b0 *"
b0 1"
0?
b0 @
b0 -"
b0 3"
b11100 F
b11100 '"
b11100 ."
b1001011110111110001101001100011 E
b1001011110111110001101001100011 ("
b1001011110111110001101001100011 /"
b10 q
b10 p
b100000000010 r
b11 b
b10 _
b11111111111111111111111111111110 d
b10 N
b10 z
b10 E"
b11 O
b11 y
b11 D"
b100000 +
b100000 2
b100000 4
b100000 <
b100000 ="
b100000 A"
b1001011110111110001101001100011 =
b1001011110111110001101001100011 #"
b1001011110111110001101001100011 ?"
b11100 >
b11100 $"
b11100 >"
b1000000000000110010011 K
b1000000000000110010011 l
b1000000000000110010011 6"
b11000 \
b11000 L
b11000 m
b11000 5"
b11 H
b11 a
b11 9"
b10 I
b10 e
b10 8"
1$
#370
0$
#380
b100000000000100010011 ,
b100000000000100010011 3
b100000000000100010011 5
b100000000000100010011 :"
b10010111100 ]
b1 C
b1 *"
b1 1"
b1 @
b1 -"
b1 3"
1?
b0 d
b10010111101 q
b11110001110010111100 p
b10010110100 r
b1100011 c
b10100 b
b1 o
b11110 `
b11101 _
b100101 n
0M
b0 N
b0 z
b0 E"
b0 O
b0 y
b0 D"
b10011 ""
b1 !"
b0 &"
b0 |
b1 {
b0 %"
b0 A
b0 ,"
b0 C"
b0 B
b0 +"
b0 B"
b100000 F
b100000 '"
b100000 ."
b100000000000010010011 E
b100000000000010010011 ("
b100000000000010010011 /"
b0 I
b0 e
b0 8"
0G
b0 H
b0 a
b0 9"
b11100 \
b11100 L
b11100 m
b11100 5"
b1001011110111110001101001100011 K
b1001011110111110001101001100011 l
b1001011110111110001101001100011 6"
b100000 >
b100000 $"
b100000 >"
b100000000000010010011 =
b100000000000010010011 #"
b100000000000010010011 ?"
b100100 +
b100100 2
b100100 4
b100100 <
b100100 ="
b100100 A"
b10 #
1$
#390
0$
#400
b10001000001011111100110011 ,
b10001000001011111100110011 3
b10001000001011111100110011 5
b10001000001011111100110011 :"
b0 ]
b1 N
b1 z
b1 E"
b0 4"
b0 <"
b0 V
b0 [
b0 2"
b0 ;"
0W
b0 X
b0 Z
b0 @"
b10 !"
b1 C
b1 *"
b1 1"
1?
b10 @
b10 -"
b10 3"
b100100 F
b100100 '"
b100100 ."
b100000000000100010011 E
b100000000000100010011 ("
b100000000000100010011 /"
b1 q
b100000000000 p
b100000000000 r
b10011 c
b1 b
b0 o
b0 `
b1 _
b0 n
b11111111111111111111111111111111 d
b0 U
b0 Y
b0 s
0T
1M
b1 O
b1 y
b1 D"
b101000 +
b101000 2
b101000 4
b101000 <
b101000 ="
b101000 A"
b100000000000100010011 =
b100000000000100010011 #"
b100000000000100010011 ?"
b100100 >
b100100 $"
b100100 >"
b100000000000010010011 K
b100000000000010010011 l
b100000000000010010011 6"
b100000 \
b100000 L
b100000 m
b100000 5"
b1 H
b1 a
b1 9"
1G
b1 I
b1 e
b1 8"
1$
#410
0$
#420
b111010010011 ,
b111010010011 3
b111010010011 5
b111010010011 :"
b1 D
b1 )"
b1 0"
b1 :
b1 }
b1 G"
b1 ;
b1 ~
b1 F"
b10 A
b10 ,"
b10 C"
b1 B
b1 +"
b1 B"
b10 r
b10 b
b1 N
b1 z
b1 E"
b10 O
b10 y
b10 D"
b110011 ""
b11110 !"
b11 &"
b1 |
b10 {
b1 %"
b1 C
b1 *"
b1 1"
1?
b11110 @
b11110 -"
b11110 3"
b101000 F
b101000 '"
b101000 ."
b10001000001011111100110011 E
b10001000001011111100110011 ("
b10001000001011111100110011 /"
b10 H
b10 a
b10 9"
b100100 \
b100100 L
b100100 m
b100100 5"
b100000000000100010011 K
b100000000000100010011 l
b100000000000100010011 6"
b101000 >
b101000 $"
b101000 >"
b10001000001011111100110011 =
b10001000001011111100110011 #"
b10001000001011111100110011 ?"
b101100 +
b101100 2
b101100 4
b101100 <
b101100 ="
b101100 A"
1$
#430
0$
#440
b1100000000000110010011 ,
b1100000000000110010011 3
b1100000000000110010011 5
b1100000000000110010011 :"
b0 :
b0 }
b0 G"
b0 ;
b0 ~
b0 F"
b1111111111111111111111111111111111111111111111111111111111111111 h
b1 i
b1 x
b1 w
b10011 ""
b11101 !"
b0 &"
b0 |
b0 {
b0 %"
b0 C
b0 *"
b0 1"
b0 D
b0 )"
b0 0"
1?
b11101 @
b11101 -"
b11101 3"
b0 A
b0 ,"
b0 C"
b0 B
b0 +"
b0 B"
b101100 F
b101100 '"
b101100 ."
b111010010011 E
b111010010011 ("
b111010010011 /"
b100010 q
b1011000000100010 p
b111110 r
b110011 c
b11110 b
b11 o
b1 `
b10 _
b1 n
b100010 ]
b11111111111111111111111111111111 f
b0 N
b0 z
b0 E"
b11110 O
b11110 y
b11110 D"
b110000 +
b110000 2
b110000 4
b110000 <
b110000 ="
b110000 A"
b111010010011 =
b111010010011 #"
b111010010011 ?"
b101100 >
b101100 $"
b101100 >"
b10001000001011111100110011 K
b10001000001011111100110011 l
b10001000001011111100110011 6"
b101000 \
b101000 L
b101000 m
b101000 5"
b11110 H
b11110 a
b11110 9"
b1 J
b1 g
b1 7"
1$
#450
0$
#460
b1001001110111110001111001100011 ,
b1001001110111110001111001100011 3
b1001001110111110001111001100011 5
b1001001110111110001111001100011 :"
b0 d
b0 ]
b0 f
b0 q
b0 p
b100000011100 r
b10011 c
b11101 b
b0 o
b0 `
b0 _
b0 n
b11101 O
b11101 y
b11101 D"
b11 !"
b11 {
b11 C
b11 *"
b11 1"
1?
b11 @
b11 -"
b11 3"
b110000 F
b110000 '"
b110000 ."
b1100000000000110010011 E
b1100000000000110010011 ("
b1100000000000110010011 /"
b0 I
b0 e
b0 8"
b0 J
b0 g
b0 7"
b11101 H
b11101 a
b11101 9"
b101100 \
b101100 L
b101100 m
b101100 5"
b111010010011 K
b111010010011 l
b111010010011 6"
b110000 >
b110000 $"
b110000 >"
b1100000000000110010011 =
b1100000000000110010011 #"
b1100000000000110010011 ?"
b110100 +
b110100 2
b110100 4
b110100 <
b110100 ="
b110100 A"
1$
#470
0$
#480
b1100000000000010010011 ,
b1100000000000010010011 3
b1100000000000010010011 5
b1100000000000010010011 :"
b11101 A
b11101 ,"
b11101 C"
b11110 B
b11110 +"
b11110 B"
b10 ]
b1100011 ""
b11100 !"
b1 &"
b11110 |
b11101 {
b100100 %"
b0 C
b0 *"
b0 1"
0?
b0 @
b0 -"
b0 3"
b110100 F
b110100 '"
b110100 ."
b1001001110111110001111001100011 E
b1001001110111110001111001100011 ("
b1001001110111110001111001100011 /"
b11 q
b100000000010 p
b100000000010 r
b11 b
b11 _
b11111111111111111111111111111101 d
b11 N
b11 z
b11 E"
b11 O
b11 y
b11 D"
b111000 +
b111000 2
b111000 4
b111000 <
b111000 ="
b111000 A"
b1001001110111110001111001100011 =
b1001001110111110001111001100011 #"
b1001001110111110001111001100011 ?"
b110100 >
b110100 $"
b110100 >"
b1100000000000110010011 K
b1100000000000110010011 l
b1100000000000110010011 6"
b110000 \
b110000 L
b110000 m
b110000 5"
b11 H
b11 a
b11 9"
b11 I
b11 e
b11 8"
1$
#490
0$
#500
b11100000000000100010011 ,
b11100000000000100010011 3
b11100000000000100010011 5
b11100000000000100010011 :"
b10010011100 ]
b11 C
b11 *"
b11 1"
b1 @
b1 -"
b1 3"
1?
b0 d
b10010011101 q
b11110001110010011100 p
b10010011100 r
b1100011 c
b11100 b
b1 o
b11110 `
b11101 _
b100100 n
0M
b0 N
b0 z
b0 E"
b0 O
b0 y
b0 D"
b10011 ""
b1 !"
b0 &"
b0 |
b11 {
b0 %"
b0 A
b0 ,"
b0 C"
b0 B
b0 +"
b0 B"
b111000 F
b111000 '"
b111000 ."
b1100000000000010010011 E
b1100000000000010010011 ("
b1100000000000010010011 /"
b0 I
b0 e
b0 8"
0G
b0 H
b0 a
b0 9"
b110100 \
b110100 L
b110100 m
b110100 5"
b1001001110111110001111001100011 K
b1001001110111110001111001100011 l
b1001001110111110001111001100011 6"
b111000 >
b111000 $"
b111000 >"
b1100000000000010010011 =
b1100000000000010010011 #"
b1100000000000010010011 ?"
b111100 +
b111100 2
b111100 4
b111100 <
b111100 ="
b111100 A"
b11 #
1$
#510
0$
#520
b10001000001011111100110011 ,
b10001000001011111100110011 3
b10001000001011111100110011 5
b10001000001011111100110011 :"
b10 ]
b11 N
b11 z
b11 E"
b0 4"
b0 <"
b0 V
b0 [
b0 2"
b0 ;"
0W
b0 X
b0 Z
b0 @"
b10 !"
b111 {
b111 C
b111 *"
b111 1"
1?
b10 @
b10 -"
b10 3"
b111100 F
b111100 '"
b111100 ."
b11100000000000100010011 E
b11100000000000100010011 ("
b11100000000000100010011 /"
b11 q
b100000000010 p
b100000000000 r
b10011 c
b1 b
b0 o
b0 `
b11 _
b0 n
b11111111111111111111111111111101 d
b0 U
b0 Y
b0 s
0T
1M
b1 O
b1 y
b1 D"
b1000000 +
b1000000 2
b1000000 4
b1000000 <
b1000000 ="
b1000000 A"
b11100000000000100010011 =
b11100000000000100010011 #"
b11100000000000100010011 ?"
b111100 >
b111100 $"
b111100 >"
b1100000000000010010011 K
b1100000000000010010011 l
b1100000000000010010011 6"
b111000 \
b111000 L
b111000 m
b111000 5"
b1 H
b1 a
b1 9"
1G
b11 I
b11 e
b11 8"
1$
#530
0$
#540
b111010010011 ,
b111010010011 3
b111010010011 5
b111010010011 :"
b11 D
b11 )"
b11 0"
b110 ]
b111 :
b111 }
b111 G"
b11 ;
b11 ~
b11 F"
b10 A
b10 ,"
b10 C"
b1 B
b1 +"
b1 B"
b11111111111111111111111111111001 d
b111 q
b100000000110 p
b10 r
b10 b
b111 _
b111 N
b111 z
b111 E"
b10 O
b10 y
b10 D"
b110011 ""
b11110 !"
b11 &"
b1 |
b10 {
b1 %"
b111 C
b111 *"
b111 1"
1?
b11110 @
b11110 -"
b11110 3"
b1000000 F
b1000000 '"
b1000000 ."
b10001000001011111100110011 E
b10001000001011111100110011 ("
b10001000001011111100110011 /"
b111 I
b111 e
b111 8"
b10 H
b10 a
b10 9"
b111100 \
b111100 L
b111100 m
b111100 5"
b11100000000000100010011 K
b11100000000000100010011 l
b11100000000000100010011 6"
b1000000 >
b1000000 $"
b1000000 >"
b10001000001011111100110011 =
b10001000001011111100110011 #"
b10001000001011111100110011 ?"
b1000100 +
b1000100 2
b1000100 4
b1000100 <
b1000100 ="
b1000100 A"
1$
#550
0$
#560
b10000000000000110010011 ,
b10000000000000110010011 3
b10000000000000110010011 5
b10000000000000110010011 :"
b0 :
b0 }
b0 G"
b0 ;
b0 ~
b0 F"
b1111111111111111111111111111111111111111111111111111111111101011 h
b111 x
b10101 i
b11 w
b10011 ""
b11101 !"
b0 &"
b0 |
b0 {
b0 %"
b0 C
b0 *"
b0 1"
b0 D
b0 )"
b0 0"
1?
b11101 @
b11101 -"
b11101 3"
b0 A
b0 ,"
b0 C"
b0 B
b0 +"
b0 B"
b1000100 F
b1000100 '"
b1000100 ."
b111010010011 E
b111010010011 ("
b111010010011 /"
b100010 q
b1011000000100010 p
b111110 r
b110011 c
b11110 b
b11 o
b1 `
b10 _
b1 n
b100100 ]
b11111111111111111111111111111101 f
b0 N
b0 z
b0 E"
b11110 O
b11110 y
b11110 D"
b1001000 +
b1001000 2
b1001000 4
b1001000 <
b1001000 ="
b1001000 A"
b111010010011 =
b111010010011 #"
b111010010011 ?"
b1000100 >
b1000100 $"
b1000100 >"
b10001000001011111100110011 K
b10001000001011111100110011 l
b10001000001011111100110011 6"
b1000000 \
b1000000 L
b1000000 m
b1000000 5"
b11110 H
b11110 a
b11110 9"
b11 J
b11 g
b11 7"
1$
#570
0$
#580
b1001001110111110001001001100011 ,
b1001001110111110001001001100011 3
b1001001110111110001001001100011 5
b1001001110111110001001001100011 :"
b0 d
b0 ]
b0 f
b0 q
b0 p
b100000011100 r
b10011 c
b11101 b
b0 o
b0 `
b0 _
b0 n
b11101 O
b11101 y
b11101 D"
b11 !"
b100 {
b100 C
b100 *"
b100 1"
1?
b11 @
b11 -"
b11 3"
b1001000 F
b1001000 '"
b1001000 ."
b10000000000000110010011 E
b10000000000000110010011 ("
b10000000000000110010011 /"
b0 I
b0 e
b0 8"
b0 J
b0 g
b0 7"
b11101 H
b11101 a
b11101 9"
b1000100 \
b1000100 L
b1000100 m
b1000100 5"
b111010010011 K
b111010010011 l
b111010010011 6"
b1001000 >
b1001000 $"
b1001000 >"
b10000000000000110010011 =
b10000000000000110010011 #"
b10000000000000110010011 ?"
b1001100 +
b1001100 2
b1001100 4
b1001100 <
b1001100 ="
b1001100 A"
1$
#590
0$
#600
b10010011 ,
b10010011 3
b10010011 5
b10010011 :"
b11101 A
b11101 ,"
b11101 C"
b11110 B
b11110 +"
b11110 B"
b100 ]
b1100011 ""
b100 !"
b1 &"
b11110 |
b11101 {
b100100 %"
b0 C
b0 *"
b0 1"
0?
b0 @
b0 -"
b0 3"
b1001100 F
b1001100 '"
b1001100 ."
b1001001110111110001001001100011 E
b1001001110111110001001001100011 ("
b1001001110111110001001001100011 /"
b100 q
b100 p
b100000000010 r
b11 b
b100 _
b11111111111111111111111111111100 d
b100 N
b100 z
b100 E"
b11 O
b11 y
b11 D"
b1010000 +
b1010000 2
b1010000 4
b1010000 <
b1010000 ="
b1010000 A"
b1001001110111110001001001100011 =
b1001001110111110001001001100011 #"
b1001001110111110001001001100011 ?"
b1001100 >
b1001100 $"
b1001100 >"
b10000000000000110010011 K
b10000000000000110010011 l
b10000000000000110010011 6"
b1001000 \
b1001000 L
b1001000 m
b1001000 5"
b11 H
b11 a
b11 9"
b100 I
b100 e
b100 8"
1$
#610
0$
#620
b11111111111111111000000100110111 ,
b11111111111111111000000100110111 3
b11111111111111111000000100110111 5
b11111111111111111000000100110111 :"
b10010011100 ]
b1 @
b1 -"
b1 3"
1?
b0 d
b10010011101 q
b11110001110010011100 p
b10010000100 r
b1100011 c
b100 b
b1 o
b11110 `
b11101 _
b100100 n
0M
b0 N
b0 z
b0 E"
b0 O
b0 y
b0 D"
b10011 ""
b1 !"
b0 &"
b0 |
b0 {
b0 %"
b0 A
b0 ,"
b0 C"
b0 B
b0 +"
b0 B"
b1010000 F
b1010000 '"
b1010000 ."
b10010011 E
b10010011 ("
b10010011 /"
b0 I
b0 e
b0 8"
0G
b0 H
b0 a
b0 9"
b1001100 \
b1001100 L
b1001100 m
b1001100 5"
b1001001110111110001001001100011 K
b1001001110111110001001001100011 l
b1001001110111110001001001100011 6"
b1010000 >
b1010000 $"
b1010000 >"
b10010011 =
b10010011 #"
b10010011 ?"
b1010100 +
b1010100 2
b1010100 4
b1010100 <
b1010100 ="
b1010100 A"
b100 #
1$
#630
0$
